…
# current version
packageVersion("ggchicklet")
## [1] '0.1.0'
```

### From the NYTimes

``` r
library(stringi)
library(hrbrthemes)
library(tidyverse)

(debates_df <- read_csv("https://rud.is/data/2019-dem-debates.csv.gz"))
## # A tibble: 192 x 4
##    elapsed timestamp speaker      topic     
##      <dbl> <drtn>    <chr>        <chr>     
##  1   0.222 21:04     Sanders      Healthcare
##  2   1.08  21:05     Biden        Economy   
##  3   0.975 21:06     Harris       Economy   
##  4   1.05  21:07     Hickenlooper Other     
##  5   0.716 21:09     Sanders      Trump     
##  6   1.26  21:10     Bennet       Healthcare
##  7   0.218 21:12     Gillibrand   Healthcare
##  8   1.03  21:12     Buttigieg    Education 
##  9   0.378 21:13     Swalwell     Education 
## 10   1.08  21:14     Yang         Economy   
## # … with 182 more rows
…
